{
  "wifi.ssid":"<SSID>",
  "wifi.pass":"<PASS>",

  "ap.ssid":"",
  "ap.pass":"",

  "thingy.server":"api.thingy.io",
  "thingy.port":443,
  "thingy.finger":"XXXXX",

  "axon.uid":"<UiD>",
  "axon.sid":"<SiD>",

  "mqtt.server":"mqtt.thingy.io",
  "mqtt.port":1883,

  "rf.power":80,
  "timestamp":0
}